{
	"username": "sachin@appvance.com",
	"password": "ATCTT3xFfGN0D0qbYX64VqMgAz5imJN7q564d8xYss4A1euRUeKHAw4iJQmJQDE_nbJgmJc6FzjhuLdYKF-3fvGu92Uzpia2CYkruK30aIWsh8ONIhwX4GTynuEk_6cUQK33-MX73CsiIyz98z-I7Bs5cNzy7dNDYUUwQyKdrYUkbla80_xdqws=800355A3",
	"repository": "https://sachinpg@bitbucket.org/sachinpg/qatest.git",
	"branch": "master",
	"sshPhrase": "";
	"sshKey": ""
}
